{
	"Version": 3,
	"Meta": {
		"Duration": 3.33,
		"Fps": 30.0,
		"Loop": true,
		"AreBeziersRestricted": false,
		"CurveCount": 43,
		"TotalSegmentCount": 205,
		"TotalPointCount": 248,
		"UserDataCount": 0,
		"TotalUserDataSize": 0
	},
	"Curves": [
		{
			"Target": "Model",
			"Id": "Opacity",
			"Segments": [
				0,
				1,
				0,
				3.33,
				1
			]
		},
		{
			"Target": "Parameter",
			"Id": "ParamAngleX",
			"Segments": [
				0,
				0,
				2,
				3.333,
				0
			]
		},
		{
			"Target": "Parameter",
			"Id": "ParamAngleZ",
			"Segments": [
				0,
				0,
				2,
				0.033,
				-0.067,
				2,
				0.067,
				-0.258,
				2,
				0.1,
				-0.554,
				2,
				0.133,
				-0.938,
				2,
				0.167,
				-1.392,
				2,
				0.2,
				-1.898,
				2,
				0.233,
				-2.44,
				2,
				0.267,
				-3,
				2,
				0.3,
				-3.56,
				2,
				0.333,
				-4.102,
				2,
				0.367,
				-4.608,
				2,
				0.4,
				-5.062,
				2,
				0.433,
				-5.446,
				2,
				0.467,
				-5.742,
				2,
				0.5,
				-5.933,
				2,
				0.533,
				-6,
				2,
				1.567,
				-5.062,
				2,
				1.6,
				-3,
				2,
				1.633,
				-0.938,
				2,
				1.667,
				0,
				2,
				3.333,
				0
			]
		},
		{
			"Target": "Parameter",
			"Id": "ParamEyeLOpen",
			"Segments": [
				0,
				1,
				2,
				3.333,
				1
			]
		},
		{
			"Target": "Parameter",
			"Id": "ParamEyeLSmile",
			"Segments": [
				0,
				1,
				2,
				0.033,
				0.999,
				2,
				0.067,
				0.996,
				2,
				0.1,
				0.991,
				2,
				0.133,
				0.984,
				2,
				0.167,
				0.977,
				2,
				0.2,
				0.968,
				2,
				0.233,
				0.959,
				2,
				0.267,
				0.95,
				2,
				0.3,
				0.941,
				2,
				0.333,
				0.932,
				2,
				0.367,
				0.923,
				2,
				0.4,
				0.916,
				2,
				0.433,
				0.909,
				2,
				0.467,
				0.904,
				2,
				0.5,
				0.901,
				2,
				0.533,
				0.9,
				2,
				0.6,
				0.9,
				2,
				0.633,
				0.9,
				2,
				0.7,
				0.9,
				2,
				0.733,
				0.9,
				2,
				0.8,
				0.9,
				2,
				0.833,
				0.9,
				2,
				0.9,
				0.9,
				2,
				0.933,
				0.9,
				2,
				0.967,
				0.9,
				2,
				1,
				0.9,
				2,
				1.033,
				0.9,
				2,
				1.067,
				0.9,
				2,
				1.133,
				0.9,
				2,
				1.167,
				0.9,
				2,
				1.2,
				0.9,
				2,
				1.267,
				0.9,
				2,
				1.3,
				0.9,
				2,
				1.367,
				0.9,
				2,
				1.4,
				0.9,
				2,
				1.467,
				0.9,
				2,
				1.5,
				0.9,
				2,
				1.567,
				0.916,
				2,
				1.6,
				0.95,
				2,
				1.633,
				0.984,
				2,
				1.667,
				1,
				2,
				3.333,
				1
			]
		},
		{
			"Target": "Parameter",
			"Id": "ParamEyeROpen",
			"Segments": [
				0,
				1,
				2,
				3.333,
				1
			]
		},
		{
			"Target": "Parameter",
			"Id": "ParamEyeRSmile",
			"Segments": [
				0,
				1,
				2,
				0.033,
				0.999,
				2,
				0.067,
				0.996,
				2,
				0.1,
				0.991,
				2,
				0.133,
				0.984,
				2,
				0.167,
				0.977,
				2,
				0.2,
				0.968,
				2,
				0.233,
				0.959,
				2,
				0.267,
				0.95,
				2,
				0.3,
				0.941,
				2,
				0.333,
				0.932,
				2,
				0.367,
				0.923,
				2,
				0.4,
				0.916,
				2,
				0.433,
				0.909,
				2,
				0.467,
				0.904,
				2,
				0.5,
				0.901,
				2,
				0.533,
				0.9,
				2,
				1.567,
				0.915,
				2,
				1.6,
				0.95,
				2,
				1.633,
				0.984,
				2,
				1.667,
				1,
				2,
				3.333,
				1
			]
		},
		{
			"Target": "Parameter",
			"Id": "ParamEyeBallY",
			"Segments": [
				0,
				0,
				2,
				3.333,
				0
			]
		},
		{
			"Target": "Parameter",
			"Id": "ParamBrowLY",
			"Segments": [
				0,
				0,
				2,
				3.333,
				0
			]
		},
		{
			"Target": "Parameter",
			"Id": "Param",
			"Segments": [
				0,
				0,
				2,
				3.333,
				0
			]
		},
		{
			"Target": "Parameter",
			"Id": "ParamBrowRY",
			"Segments": [
				0,
				0,
				2,
				3.333,
				0
			]
		},
		{
			"Target": "Parameter",
			"Id": "ParamBrowLX",
			"Segments": [
				0,
				0,
				2,
				3.333,
				0
			]
		},
		{
			"Target": "Parameter",
			"Id": "ParamBrowRX",
			"Segments": [
				0,
				0,
				2,
				3.333,
				0
			]
		},
		{
			"Target": "Parameter",
			"Id": "ParamBrowLAngle",
			"Segments": [
				0,
				-0.2,
				2,
				0.033,
				-0.203,
				2,
				0.067,
				-0.213,
				2,
				0.1,
				-0.228,
				2,
				0.133,
				-0.247,
				2,
				0.167,
				-0.27,
				2,
				0.2,
				-0.295,
				2,
				0.233,
				-0.322,
				2,
				0.267,
				-0.35,
				2,
				0.3,
				-0.378,
				2,
				0.333,
				-0.405,
				2,
				0.367,
				-0.43,
				2,
				0.4,
				-0.453,
				2,
				0.433,
				-0.472,
				2,
				0.467,
				-0.487,
				2,
				0.5,
				-0.497,
				2,
				0.533,
				-0.5,
				2,
				1.567,
				-0.453,
				2,
				1.6,
				-0.35,
				2,
				1.633,
				-0.247,
				2,
				1.667,
				-0.2,
				2,
				3.333,
				-0.2
			]
		},
		{
			"Target": "Parameter",
			"Id": "ParamBrowRAngle",
			"Segments": [
				0,
				0,
				2,
				3.333,
				0
			]
		},
		{
			"Target": "Parameter",
			"Id": "ParamBrowLForm",
			"Segments": [
				0,
				0,
				2,
				3.333,
				0
			]
		},
		{
			"Target": "Parameter",
			"Id": "ParamBrowRForm",
			"Segments": [
				0,
				0,
				2,
				3.333,
				0
			]
		},
		{
			"Target": "Parameter",
			"Id": "ParamMouthForm",
			"Segments": [
				0,
				1,
				2,
				3.333,
				1
			]
		},
		{
			"Target": "Parameter",
			"Id": "ParamMouthOpenY",
			"Segments": [
				0,
				0,
				2,
				0.033,
				0.006,
				2,
				0.067,
				0.022,
				2,
				0.1,
				0.046,
				2,
				0.133,
				0.078,
				2,
				0.167,
				0.116,
				2,
				0.2,
				0.158,
				2,
				0.233,
				0.204,
				2,
				0.267,
				0.25,
				2,
				0.3,
				0.297,
				2,
				0.333,
				0.342,
				2,
				0.367,
				0.384,
				2,
				0.4,
				0.422,
				2,
				0.433,
				0.454,
				2,
				0.467,
				0.479,
				2,
				0.5,
				0.495,
				2,
				0.533,
				0.5,
				2,
				1.567,
				0.424,
				2,
				1.6,
				0.251,
				2,
				1.633,
				0.079,
				2,
				1.667,
				0,
				2,
				3.333,
				0
			]
		},
		{
			"Target": "Parameter",
			"Id": "ParamCheek",
			"Segments": [
				0,
				0,
				2,
				3.333,
				0
			]
		},
		{
			"Target": "Parameter",
			"Id": "ParamBodyAngleX",
			"Segments": [
				0,
				0,
				2,
				3.333,
				0
			]
		},
		{
			"Target": "Parameter",
			"Id": "ParamBodyAngleY",
			"Segments": [
				0,
				0,
				2,
				3.333,
				0
			]
		},
		{
			"Target": "Parameter",
			"Id": "ParamBodyAngleZ",
			"Segments": [
				0,
				0,
				2,
				3.333,
				0
			]
		},
		{
			"Target": "Parameter",
			"Id": "ParamBreath",
			"Segments": [
				0,
				0,
				2,
				3.333,
				0
			]
		},
		{
			"Target": "Parameter",
			"Id": "ParamHairFront",
			"Segments": [
				0,
				0,
				2,
				3.333,
				0
			]
		},
		{
			"Target": "Parameter",
			"Id": "ParamHairSide",
			"Segments": [
				0,
				0,
				2,
				3.333,
				0
			]
		},
		{
			"Target": "Parameter",
			"Id": "ParamHairBack",
			"Segments": [
				0,
				0,
				2,
				3.333,
				0
			]
		},
		{
			"Target": "Parameter",
			"Id": "Param2",
			"Segments": [
				0,
				0,
				2,
				3.333,
				0
			]
		},
		{
			"Target": "Parameter",
			"Id": "Param3",
			"Segments": [
				0,
				0,
				2,
				3.333,
				0
			]
		},
		{
			"Target": "Parameter",
			"Id": "Param6",
			"Segments": [
				0,
				0,
				2,
				0.033,
				0.19,
				2,
				0.067,
				0.723,
				2,
				0.1,
				1.563,
				2,
				0.133,
				2.63,
				2,
				0.167,
				3.902,
				2,
				0.2,
				5.288,
				2,
				0.233,
				6.754,
				2,
				0.267,
				8.246,
				2,
				0.3,
				9.712,
				2,
				0.333,
				11.098,
				2,
				0.367,
				12.37,
				2,
				0.4,
				13.437,
				2,
				0.433,
				14.277,
				2,
				0.467,
				14.81,
				2,
				0.5,
				15,
				2,
				0.6,
				15.417,
				2,
				0.633,
				16.549,
				2,
				0.667,
				18.255,
				2,
				0.7,
				20.288,
				2,
				0.733,
				22.5,
				2,
				0.767,
				24.712,
				2,
				0.8,
				26.745,
				2,
				0.833,
				28.451,
				2,
				0.867,
				29.583,
				2,
				0.9,
				30,
				2,
				1.333,
				29.663,
				2,
				1.367,
				28.711,
				2,
				1.4,
				27.231,
				2,
				1.433,
				25.312,
				2,
				1.467,
				23.042,
				2,
				1.5,
				20.508,
				2,
				1.533,
				17.798,
				2,
				1.567,
				15,
				2,
				1.6,
				12.202,
				2,
				1.633,
				9.492,
				2,
				1.667,
				6.958,
				2,
				1.7,
				4.688,
				2,
				1.733,
				2.769,
				2,
				1.767,
				1.289,
				2,
				1.8,
				0.337,
				2,
				1.833,
				0,
				2,
				3.333,
				0
			]
		},
		{
			"Target": "Parameter",
			"Id": "Param5",
			"Segments": [
				0,
				0,
				2,
				3.333,
				0
			]
		},
		{
			"Target": "PartOpacity",
			"Id": "Part12",
			"Segments": [
				0,
				1,
				0,
				3.33,
				1
			]
		},
		{
			"Target": "PartOpacity",
			"Id": "Part9",
			"Segments": [
				0,
				1,
				0,
				3.33,
				1
			]
		},
		{
			"Target": "PartOpacity",
			"Id": "Part8",
			"Segments": [
				0,
				1,
				0,
				3.33,
				1
			]
		},
		{
			"Target": "PartOpacity",
			"Id": "Part",
			"Segments": [
				0,
				1,
				0,
				3.33,
				1
			]
		},
		{
			"Target": "PartOpacity",
			"Id": "Part11",
			"Segments": [
				0,
				1,
				0,
				3.33,
				1
			]
		},
		{
			"Target": "PartOpacity",
			"Id": "Part2",
			"Segments": [
				0,
				1,
				0,
				3.33,
				1
			]
		},
		{
			"Target": "PartOpacity",
			"Id": "Part3",
			"Segments": [
				0,
				1,
				0,
				3.33,
				1
			]
		},
		{
			"Target": "PartOpacity",
			"Id": "Part4",
			"Segments": [
				0,
				1,
				0,
				3.33,
				1
			]
		},
		{
			"Target": "PartOpacity",
			"Id": "Part5",
			"Segments": [
				0,
				1,
				0,
				3.33,
				1
			]
		},
		{
			"Target": "PartOpacity",
			"Id": "Part10",
			"Segments": [
				0,
				1,
				0,
				3.33,
				1
			]
		},
		{
			"Target": "PartOpacity",
			"Id": "Part6",
			"Segments": [
				0,
				1,
				0,
				3.33,
				1
			]
		},
		{
			"Target": "PartOpacity",
			"Id": "Part7",
			"Segments": [
				0,
				1,
				0,
				3.33,
				1
			]
		}
	]
}